{
  "project_info": {
    "project_number": "882000933178",
    "firebase_url": "https://quotograph-e58c3.firebaseio.com",
    "project_id": "quotograph-e58c3",
    "storage_bucket": "quotograph-e58c3.appspot.com"
  },
  "client": [
    {
      "client_info": {
        "mobilesdk_app_id": "1:882000933178:android:2a3f39b46590dcb3",
        "android_client_info": {
          "package_name": "com.stanleyidesis.quotograph"
        }
      },
      "oauth_client": [
        {
          "client_id": "882000933178-4tbf6fuicdk0g5ukqmt993pffcve79pl.apps.googleusercontent.com",
          "client_type": 3
        },
        {
          "client_id": "882000933178-s0ouejo27b2792lhuf1bjfke9s8qc9s6.apps.googleusercontent.com",
          "client_type": 3
        }
      ],
      "api_key": [
        {
          "current_key": "AIzaSyDzCG822B_qJVEixjsczZ4yY3-2j0oFrN8"
        }
      ],
      "services": {
        "analytics_service": {
          "status": 2,
          "analytics_property": {
            "tracking_id": "UA-37480432-5"
          }
        },
        "appinvite_service": {
          "status": 1,
          "other_platform_oauth_client": []
        },
        "ads_service": {
          "status": 2
        }
      }
    }
  ],
  "configuration_version": "1"
}